<?xml version="1.0"?>
<!-- This is extensively based on the Kinect URDF in turtlebot_description/urdf/turtelbot_kinect.urdf.xacro -->
<robot name="lh_hardware" xmlns:xacro="http://www.ros.org/wiki/xacro">

  <xacro:include filename="$(find lh_description)/urdf/gazebo.urdf.xacro"/>
  <xacro:include filename="$(find lh_description)/calibration/$(env ROBOT)_cal.xacro" />

<xacro:macro name="kinect" params="parent_link *origin">
  <joint name="base_camera_joint" type="fixed">
    <xacro:insert_block name="origin"/>
    <axis xyz="1 0 0"/>
    <limit effort="100" velocity="10" lower="-0.20" upper="0.20"/>
    <parent link="${parent_link}" />
    <child link="camera_link" />
  </joint>

  <link name="camera_link">
    <inertial>
      <mass value="0.01" />
      <origin xyz="0 0 0" />
      <inertia ixx="0.001" ixy="0.0" ixz="0.0"
        iyy="0.001" iyz="0.0"
        izz="0.001" />
    </inertial>

    <visual>
      <origin xyz=" 0 0 0 " rpy="0 0 0" />
      <geometry>
        <mesh filename="package://lh_description/meshes/kinect/kinect.dae" scale="100.0 100.0 100.0"/>
      </geometry>
    </visual>

    <collision>
      <origin xyz="-0.0365 0.0 0.0" rpy="0 0 0" />
      <geometry>
        <box size="0.0730 .2760 0.0720"/>
      </geometry>
    </collision>

  </link>

  <joint name="camera_depth_joint" type="fixed">
    <origin xyz="0 0.018 0" rpy="0 0 0" />
    <parent link="camera_link" />
    <child link="camera_depth_frame" />
  </joint>

  <link name="camera_depth_frame">
    <inertial>
      <mass value="0.01" />
      <origin xyz="0 0 0" />
      <inertia ixx="0.001" ixy="0.0" ixz="0.0"
        iyy="0.001" iyz="0.0"
        izz="0.001" />
    </inertial>
  </link>

  <joint name="camera_depth_optical_joint" type="fixed">
    <origin xyz="0 0 0" rpy="${-M_PI/2} 0 ${-M_PI/2}" />
    <parent link="camera_depth_frame" />
    <child link="camera_depth_optical_frame" />
  </joint>

  <link name="camera_depth_optical_frame">
    <inertial>
      <mass value="0.001" />
      <origin xyz="0 0 0" />
      <inertia ixx="0.0001" ixy="0.0" ixz="0.0"
        iyy="0.0001" iyz="0.0"
        izz="0.0001" />
    </inertial>
  </link>

  <joint name="camera_rgb_joint" type="fixed">
    <origin xyz="0 -0.005 0" rpy="0 0 0" />
    <parent link="camera_link" />
    <child link="camera_rgb_frame" />
  </joint>

  <link name="camera_rgb_frame">
    <inertial>
      <mass value="0.001" />
      <origin xyz="0 0 0" />
      <inertia ixx="0.0001" ixy="0.0" ixz="0.0"
        iyy="0.0001" iyz="0.0"
        izz="0.0001" />
    </inertial>
  </link>

  <joint name="camera_rgb_optical_joint" type="fixed">
    <origin xyz="0 0 0" rpy="${-M_PI/2} 0 ${-M_PI/2}" />
    <parent link="camera_rgb_frame" />
    <child link="camera_rgb_optical_frame" />
  </joint>

  <link name="camera_rgb_optical_frame">
    <inertial>
      <mass value="0.001" />
      <origin xyz="0 0 0" />
      <inertia ixx="0.0001" ixy="0.0" ixz="0.0"
        iyy="0.0001" iyz="0.0"
        izz="0.0001" />
    </inertial>
  </link>

  <!-- Kinect sensor for simulation -->
  <turtlebot_sim_kinect/>
</xacro:macro>

</robot>
