<?xml version="1.0" encoding="UTF-8" standalone="no" ?>
<COLLADA xmlns="http://www.collada.org/2005/11/COLLADASchema" version="1.4.1">
    <asset>
        <contributor>
            <authoring_tool>SketchUp 8.0.15157</authoring_tool>
        </contributor>
        <created>2013-02-04T14:23:34Z</created>
        <modified>2013-02-04T14:23:34Z</modified>
        <unit meter="0.0254000" name="inch" />
        <up_axis>Z_UP</up_axis>
    </asset>
    <library_visual_scenes>
        <visual_scene id="ID1">
            <node name="SketchUp">
                <instance_geometry url="#ID2">
                    <bind_material>
                        <technique_common>
                            <instance_material symbol="Material2" target="#ID3">
                                <bind_vertex_input semantic="UVSET0" input_semantic="TEXCOORD" input_set="0" />
                            </instance_material>
                        </technique_common>
                    </bind_material>
                </instance_geometry>
                <instance_geometry url="#ID10">
                    <bind_material>
                        <technique_common>
                            <instance_material symbol="Material2" target="#ID11">
                                <bind_vertex_input semantic="UVSET0" input_semantic="TEXCOORD" input_set="0" />
                            </instance_material>
                        </technique_common>
                    </bind_material>
                </instance_geometry>
                <instance_geometry url="#ID18">
                    <bind_material>
                        <technique_common>
                            <instance_material symbol="Material2" target="#ID19">
                                <bind_vertex_input semantic="UVSET0" input_semantic="TEXCOORD" input_set="0" />
                            </instance_material>
                        </technique_common>
                    </bind_material>
                </instance_geometry>
                <instance_geometry url="#ID26">
                    <bind_material>
                        <technique_common>
                            <instance_material symbol="Material2" target="#ID3">
                                <bind_vertex_input semantic="UVSET0" input_semantic="TEXCOORD" input_set="0" />
                            </instance_material>
                        </technique_common>
                    </bind_material>
                </instance_geometry>
                <instance_geometry url="#ID32">
                    <bind_material>
                        <technique_common>
                            <instance_material symbol="Material2" target="#ID33">
                                <bind_vertex_input semantic="UVSET0" input_semantic="TEXCOORD" input_set="0" />
                            </instance_material>
                        </technique_common>
                    </bind_material>
                </instance_geometry>
                <instance_geometry url="#ID40">
                    <bind_material>
                        <technique_common>
                            <instance_material symbol="Material2" target="#ID3">
                                <bind_vertex_input semantic="UVSET0" input_semantic="TEXCOORD" input_set="0" />
                            </instance_material>
                        </technique_common>
                    </bind_material>
                </instance_geometry>
                <instance_geometry url="#ID46">
                    <bind_material>
                        <technique_common>
                            <instance_material symbol="Material2" target="#ID3">
                                <bind_vertex_input semantic="UVSET0" input_semantic="TEXCOORD" input_set="0" />
                            </instance_material>
                        </technique_common>
                    </bind_material>
                </instance_geometry>
                <instance_geometry url="#ID52">
                    <bind_material>
                        <technique_common>
                            <instance_material symbol="Material2" target="#ID3">
                                <bind_vertex_input semantic="UVSET0" input_semantic="TEXCOORD" input_set="0" />
                            </instance_material>
                        </technique_common>
                    </bind_material>
                </instance_geometry>
                <instance_geometry url="#ID58">
                    <bind_material>
                        <technique_common>
                            <instance_material symbol="Material2" target="#ID59">
                                <bind_vertex_input semantic="UVSET0" input_semantic="TEXCOORD" input_set="0" />
                            </instance_material>
                        </technique_common>
                    </bind_material>
                </instance_geometry>
                <instance_geometry url="#ID66">
                    <bind_material>
                        <technique_common>
                            <instance_material symbol="Material2" target="#ID67">
                                <bind_vertex_input semantic="UVSET0" input_semantic="TEXCOORD" input_set="0" />
                            </instance_material>
                        </technique_common>
                    </bind_material>
                </instance_geometry>
            </node>
        </visual_scene>
    </library_visual_scenes>
    <library_geometries>
        <geometry id="ID2">
            <mesh>
                <source id="ID5">
                    <float_array id="ID8" count="270">-12.9921260 11.6141732 0.0000000 -11.4173228 -10.0393701 0.0000000 -12.9921260 -11.6141732 0.0000000 12.9921260 11.6141732 0.0000000 3.9370079 -10.0393701 0.0000000 3.9370079 -11.6141732 0.0000000 12.9921260 -11.6141732 0.0000000 -11.4173228 -11.6141732 0.0000000 -12.9921260 -10.0393701 19.0944882 -12.9921260 -6.8897638 17.1259843 -12.9921260 -10.0393701 16.5354331 -12.9921260 11.6141732 19.0944882 -12.9921260 -6.8897638 6.1023622 -12.9921260 6.4960630 17.1259843 -12.9921260 6.4960630 6.1023622 -12.9921260 -11.6141732 0.0000000 -12.9921260 -11.6141732 16.5354331 -12.9921260 11.6141732 0.0000000 -12.9921260 11.6141732 19.0944882 12.9921260 11.6141732 0.0000000 -12.9921260 11.6141732 0.0000000 5.5118110 11.6141732 16.5354331 5.5118110 11.6141732 19.0944882 12.9921260 11.6141732 16.5354331 12.9921260 -11.6141732 0.0000000 12.9921260 -8.0708661 10.2253609 12.9921260 -11.6141732 16.5354331 12.9921260 11.6141732 0.0000000 12.9921260 -8.0708661 12.6172328 12.9921260 10.4330709 10.2253609 12.9921260 10.4330709 12.6172328 12.9921260 -8.0708661 16.5354331 12.9921260 -6.0202088 12.6172328 12.9921260 11.6141732 16.5354331 12.9921260 8.3963959 12.6172328 12.9921260 -11.6141732 0.0000000 3.9370079 -11.6141732 16.5354331 3.9370079 -11.6141732 0.0000000 12.9921260 -11.6141732 16.5354331 5.5118110 -11.6141732 16.5354331 3.9370079 -10.0393701 16.5354331 3.9370079 -11.6141732 0.0000000 3.9370079 -11.6141732 16.5354331 3.9370079 -10.0393701 0.0000000 5.5118110 -10.0393701 19.0944882 3.9370079 -10.0393701 16.5354331 5.5118110 -10.0393701 16.5354331 -11.4173228 -10.0393701 16.5354331 -12.9921260 -10.0393701 16.5354331 -12.9921260 -10.0393701 19.0944882 -11.4173228 -10.0393701 0.0000000 3.9370079 -10.0393701 0.0000000 -11.4173228 -10.0393701 0.0000000 -11.4173228 -11.6141732 16.5354331 -11.4173228 -11.6141732 0.0000000 -11.4173228 -10.0393701 16.5354331 -11.4173228 -11.6141732 16.5354331 -12.9921260 -11.6141732 0.0000000 -11.4173228 -11.6141732 0.0000000 -12.9921260 -11.6141732 16.5354331 -11.4173228 -11.6141732 16.5354331 -12.9921260 -10.0393701 16.5354331 -12.9921260 -11.6141732 16.5354331 -11.4173228 -10.0393701 16.5354331 5.5118110 -10.0393701 19.0944882 -12.9921260 11.6141732 19.0944882 -12.9921260 -10.0393701 19.0944882 5.5118110 0.9842520 19.0944882 5.5118110 11.6141732 19.0944882 5.5118110 -2.5590551 19.0944882 5.5118110 11.6141732 16.5354331 5.5118110 0.9842520 19.0944882 5.5118110 0.9842520 16.5354331 5.5118110 11.6141732 19.0944882 12.9921260 -11.6141732 16.5354331 5.5118110 -10.0393701 16.5354331 5.5118110 -11.6141732 16.5354331 5.5118110 -2.5590551 16.5354331 7.2834646 -2.5590551 16.5354331 7.2834646 0.9842520 16.5354331 5.5118110 11.6141732 16.5354331 5.5118110 0.9842520 16.5354331 12.9921260 11.6141732 16.5354331 12.9921260 -8.0708661 16.5354331 3.9370079 -10.0393701 16.5354331 3.9370079 -11.6141732 16.5354331 5.5118110 -2.5590551 16.5354331 5.5118110 -10.0393701 19.0944882 5.5118110 -10.0393701 16.5354331 5.5118110 -2.5590551 19.0944882</float_array>
                    <technique_common>
                        <accessor count="90" source="#ID8" stride="3">
                            <param name="X" type="float" />
                            <param name="Y" type="float" />
                            <param name="Z" type="float" />
                        </accessor>
                    </technique_common>
                </source>
                <source id="ID6">
                    <float_array id="ID9" count="270">0.0000000 0.0000000 -1.0000000 0.0000000 0.0000000 -1.0000000 0.0000000 0.0000000 -1.0000000 0.0000000 0.0000000 -1.0000000 0.0000000 0.0000000 -1.0000000 0.0000000 0.0000000 -1.0000000 0.0000000 0.0000000 -1.0000000 0.0000000 0.0000000 -1.0000000 -1.0000000 0.0000000 0.0000000 -1.0000000 0.0000000 0.0000000 -1.0000000 0.0000000 0.0000000 -1.0000000 0.0000000 0.0000000 -1.0000000 0.0000000 0.0000000 -1.0000000 0.0000000 0.0000000 -1.0000000 0.0000000 0.0000000 -1.0000000 0.0000000 0.0000000 -1.0000000 0.0000000 0.0000000 -1.0000000 0.0000000 0.0000000 -0.0000000 1.0000000 0.0000000 -0.0000000 1.0000000 0.0000000 -0.0000000 1.0000000 0.0000000 -0.0000000 1.0000000 0.0000000 -0.0000000 1.0000000 0.0000000 -0.0000000 1.0000000 0.0000000 1.0000000 -0.0000000 -0.0000000 1.0000000 -0.0000000 -0.0000000 1.0000000 -0.0000000 -0.0000000 1.0000000 -0.0000000 -0.0000000 1.0000000 -0.0000000 -0.0000000 1.0000000 -0.0000000 -0.0000000 1.0000000 -0.0000000 -0.0000000 1.0000000 -0.0000000 -0.0000000 1.0000000 -0.0000000 -0.0000000 1.0000000 -0.0000000 -0.0000000 1.0000000 -0.0000000 -0.0000000 0.0000000 -1.0000000 0.0000000 0.0000000 -1.0000000 0.0000000 0.0000000 -1.0000000 0.0000000 0.0000000 -1.0000000 0.0000000 0.0000000 -1.0000000 0.0000000 -1.0000000 -0.0000000 0.0000000 -1.0000000 -0.0000000 0.0000000 -1.0000000 -0.0000000 0.0000000 -1.0000000 -0.0000000 0.0000000 0.0000000 -1.0000000 0.0000000 0.0000000 -1.0000000 0.0000000 0.0000000 -1.0000000 0.0000000 0.0000000 -1.0000000 0.0000000 0.0000000 -1.0000000 0.0000000 0.0000000 -1.0000000 0.0000000 0.0000000 -1.0000000 0.0000000 0.0000000 -1.0000000 0.0000000 1.0000000 0.0000000 0.0000000 1.0000000 0.0000000 0.0000000 1.0000000 0.0000000 0.0000000 1.0000000 0.0000000 0.0000000 0.0000000 -1.0000000 0.0000000 0.0000000 -1.0000000 0.0000000 0.0000000 -1.0000000 0.0000000 0.0000000 -1.0000000 0.0000000 -0.0000000 -0.0000000 1.0000000 -0.0000000 -0.0000000 1.0000000 -0.0000000 -0.0000000 1.0000000 -0.0000000 -0.0000000 1.0000000 -0.0000000 0.0000000 1.0000000 -0.0000000 0.0000000 1.0000000 -0.0000000 0.0000000 1.0000000 -0.0000000 0.0000000 1.0000000 -0.0000000 0.0000000 1.0000000 -0.0000000 0.0000000 1.0000000 1.0000000 -0.0000000 0.0000000 1.0000000 -0.0000000 0.0000000 1.0000000 -0.0000000 0.0000000 1.0000000 -0.0000000 0.0000000 -0.0000000 -0.0000000 1.0000000 -0.0000000 -0.0000000 1.0000000 -0.0000000 -0.0000000 1.0000000 -0.0000000 -0.0000000 1.0000000 -0.0000000 -0.0000000 1.0000000 -0.0000000 -0.0000000 1.0000000 -0.0000000 -0.0000000 1.0000000 -0.0000000 -0.0000000 1.0000000 -0.0000000 -0.0000000 1.0000000 -0.0000000 -0.0000000 1.0000000 -0.0000000 -0.0000000 1.0000000 -0.0000000 -0.0000000 1.0000000 1.0000000 -0.0000000 -0.0000000 1.0000000 -0.0000000 -0.0000000 1.0000000 -0.0000000 -0.0000000 1.0000000 -0.0000000 -0.0000000</float_array>
                    <technique_common>
                        <accessor count="90" source="#ID9" stride="3">
                            <param name="X" type="float" />
                            <param name="Y" type="float" />
                            <param name="Z" type="float" />
                        </accessor>
                    </technique_common>
                </source>
                <vertices id="ID7">
                    <input semantic="POSITION" source="#ID5" />
                    <input semantic="NORMAL" source="#ID6" />
                </vertices>
                <triangles count="66" material="Material2">
                    <input offset="0" semantic="VERTEX" source="#ID7" />
                    <p>0 1 2 1 0 3 1 3 4 4 3 5 5 3 6 7 2 1 8 9 10 9 8 11 10 9 12 9 11 13 13 11 14 10 15 16 15 10 12 15 12 17 17 12 14 17 14 11 18 19 20 19 18 21 21 18 22 23 19 21 24 25 26 25 24 27 26 25 28 25 27 29 29 27 30 28 31 26 31 28 32 31 32 33 33 32 34 33 34 30 33 30 27 35 36 37 36 35 38 36 38 39 40 41 42 41 40 43 44 45 46 45 44 47 47 44 48 48 44 49 45 50 51 50 45 47 52 53 54 53 52 55 56 57 58 57 56 59 60 61 62 61 60 63 64 65 66 65 64 67 65 67 68 67 64 69 70 71 72 71 70 73 74 75 76 75 74 77 77 74 78 78 74 79 79 80 81 80 79 82 82 79 74 82 74 83 76 84 85 84 76 75 86 87 88 87 86 89</p>
                </triangles>
            </mesh>
        </geometry>
        <geometry id="ID10">
            <mesh>
                <source id="ID13">
                    <float_array id="ID16" count="60">15.9448819 -8.0708661 17.5196850 14.4685039 10.4330709 17.5196850 14.4685039 -8.0708661 17.5196850 15.9448819 10.4330709 17.5196850 15.9448819 -8.0708661 17.5196850 14.4685039 -8.0708661 5.3149606 15.9448819 -8.0708661 5.3149606 12.9921260 -8.0708661 10.2253609 12.9921260 -8.0708661 12.6172328 14.4685039 -8.0708661 17.5196850 12.9921260 10.4330709 10.2253609 15.9448819 10.4330709 5.3149606 14.4685039 10.4330709 5.3149606 15.9448819 10.4330709 17.5196850 12.9921260 10.4330709 12.6172328 14.4685039 10.4330709 17.5196850 15.9448819 10.4330709 5.3149606 14.4685039 -8.0708661 5.3149606 14.4685039 10.4330709 5.3149606 15.9448819 -8.0708661 5.3149606</float_array>
                    <technique_common>
                        <accessor count="20" source="#ID16" stride="3">
                            <param name="X" type="float" />
                            <param name="Y" type="float" />
                            <param name="Z" type="float" />
                        </accessor>
                    </technique_common>
                </source>
                <source id="ID14">
                    <float_array id="ID17" count="60">-0.0000000 -0.0000000 1.0000000 -0.0000000 -0.0000000 1.0000000 -0.0000000 -0.0000000 1.0000000 -0.0000000 -0.0000000 1.0000000 -0.0000000 -1.0000000 -0.0000000 -0.0000000 -1.0000000 -0.0000000 -0.0000000 -1.0000000 -0.0000000 -0.0000000 -1.0000000 -0.0000000 -0.0000000 -1.0000000 -0.0000000 -0.0000000 -1.0000000 -0.0000000 -0.0000000 1.0000000 -0.0000000 -0.0000000 1.0000000 -0.0000000 -0.0000000 1.0000000 -0.0000000 -0.0000000 1.0000000 -0.0000000 -0.0000000 1.0000000 -0.0000000 -0.0000000 1.0000000 -0.0000000 0.0000000 0.0000000 -1.0000000 0.0000000 0.0000000 -1.0000000 0.0000000 0.0000000 -1.0000000 0.0000000 0.0000000 -1.0000000</float_array>
                    <technique_common>
                        <accessor count="20" source="#ID17" stride="3">
                            <param name="X" type="float" />
                            <param name="Y" type="float" />
                            <param name="Z" type="float" />
                        </accessor>
                    </technique_common>
                </source>
                <vertices id="ID15">
                    <input semantic="POSITION" source="#ID13" />
                    <input semantic="NORMAL" source="#ID14" />
                </vertices>
                <triangles count="12" material="Material2">
                    <input offset="0" semantic="VERTEX" source="#ID15" />
                    <p>0 1 2 1 0 3 4 5 6 5 4 7 7 4 8 8 4 9 10 11 12 11 10 13 13 10 14 13 14 15 16 17 18 17 16 19</p>
                </triangles>
            </mesh>
        </geometry>
        <geometry id="ID18">
            <mesh>
                <source id="ID21">
                    <float_array id="ID24" count="12">15.7874016 9.6456693 6.1023622 15.7874016 -7.2834646 16.7322835 15.7874016 -7.2834646 6.1023622 15.7874016 9.6456693 16.7322835</float_array>
                    <technique_common>
                        <accessor count="4" source="#ID24" stride="3">
                            <param name="X" type="float" />
                            <param name="Y" type="float" />
                            <param name="Z" type="float" />
                        </accessor>
                    </technique_common>
                </source>
                <source id="ID22">
                    <float_array id="ID25" count="12">1.0000000 0.0000000 0.0000000 1.0000000 0.0000000 0.0000000 1.0000000 0.0000000 0.0000000 1.0000000 0.0000000 0.0000000</float_array>
                    <technique_common>
                        <accessor count="4" source="#ID25" stride="3">
                            <param name="X" type="float" />
                            <param name="Y" type="float" />
                            <param name="Z" type="float" />
                        </accessor>
                    </technique_common>
                </source>
                <vertices id="ID23">
                    <input semantic="POSITION" source="#ID21" />
                    <input semantic="NORMAL" source="#ID22" />
                </vertices>
                <triangles count="2" material="Material2">
                    <input offset="0" semantic="VERTEX" source="#ID23" />
                    <p>0 1 2 1 0 3</p>
                </triangles>
            </mesh>
        </geometry>
        <geometry id="ID26">
            <mesh>
                <source id="ID27">
                    <float_array id="ID30" count="48">15.9448819 -7.2834646 6.1023622 15.7874016 9.6456693 6.1023622 15.7874016 -7.2834646 6.1023622 15.9448819 9.6456693 6.1023622 15.9448819 9.6456693 16.7322835 15.7874016 9.6456693 6.1023622 15.9448819 9.6456693 6.1023622 15.7874016 9.6456693 16.7322835 15.7874016 -7.2834646 16.7322835 15.9448819 -7.2834646 6.1023622 15.7874016 -7.2834646 6.1023622 15.9448819 -7.2834646 16.7322835 15.9448819 9.6456693 16.7322835 15.7874016 -7.2834646 16.7322835 15.7874016 9.6456693 16.7322835 15.9448819 -7.2834646 16.7322835</float_array>
                    <technique_common>
                        <accessor count="16" source="#ID30" stride="3">
                            <param name="X" type="float" />
                            <param name="Y" type="float" />
                            <param name="Z" type="float" />
                        </accessor>
                    </technique_common>
                </source>
                <source id="ID28">
                    <float_array id="ID31" count="48">-0.0000000 -0.0000000 1.0000000 -0.0000000 -0.0000000 1.0000000 -0.0000000 -0.0000000 1.0000000 -0.0000000 -0.0000000 1.0000000 -0.0000000 -1.0000000 -0.0000000 -0.0000000 -1.0000000 -0.0000000 -0.0000000 -1.0000000 -0.0000000 -0.0000000 -1.0000000 -0.0000000 0.0000000 1.0000000 0.0000000 0.0000000 1.0000000 0.0000000 0.0000000 1.0000000 0.0000000 0.0000000 1.0000000 0.0000000 -0.0000000 -0.0000000 -1.0000000 -0.0000000 -0.0000000 -1.0000000 -0.0000000 -0.0000000 -1.0000000 -0.0000000 -0.0000000 -1.0000000</float_array>
                    <technique_common>
                        <accessor count="16" source="#ID31" stride="3">
                            <param name="X" type="float" />
                            <param name="Y" type="float" />
                            <param name="Z" type="float" />
                        </accessor>
                    </technique_common>
                </source>
                <vertices id="ID29">
                    <input semantic="POSITION" source="#ID27" />
                    <input semantic="NORMAL" source="#ID28" />
                </vertices>
                <triangles count="8" material="Material2">
                    <input offset="0" semantic="VERTEX" source="#ID29" />
                    <p>0 1 2 1 0 3 4 5 6 5 4 7 8 9 10 9 8 11 12 13 14 13 12 15</p>
                </triangles>
            </mesh>
        </geometry>
        <geometry id="ID32">
            <mesh>
                <source id="ID35">
                    <float_array id="ID38" count="360">-12.9921260 6.4960630 6.1023622 -17.7104186 -6.8897638 6.1023622 -17.7104186 6.4960630 6.1023622 -12.9921260 -6.8897638 6.1023622 -17.7104186 6.4960630 6.1023622 -17.8432878 -6.8897638 6.1129800 -17.8432878 6.4960630 6.1129800 -17.7104186 -6.8897638 6.1023622 -17.7104186 6.4960630 6.1023622 -12.9921260 6.4960630 17.1259843 -12.9921260 6.4960630 6.1023622 -17.8432878 6.4960630 6.1129800 -17.9727846 6.4960630 6.1445641 -18.0956220 6.4960630 6.1963126 -18.2086824 6.4960630 6.2669122 -18.3090961 6.4960630 6.3545709 -18.3943144 6.4960630 6.4570639 -18.4621743 6.4960630 6.5717896 -18.5109534 6.4960630 6.6958362 -18.5394137 6.4960630 6.8260551 -18.5468327 6.4960630 6.9591412 -18.5330223 6.4960630 7.0917166 -18.4983328 6.4960630 7.2204163 -15.5242287 6.4960630 15.5479077 -15.4618187 6.4960630 15.7083393 -15.3905349 6.4960630 15.8650298 -15.3106004 6.4960630 16.0174889 -15.2222652 6.4960630 16.1652394 -15.1258059 6.4960630 16.3078189 -15.0215244 6.4960630 16.4447812 -14.9097470 6.4960630 16.5756976 -14.7908235 6.4960630 16.7001585 -14.6651261 6.4960630 16.8177743 -14.5330482 6.4960630 16.9281769 -14.3950032 6.4960630 17.0310209 -14.2514231 6.4960630 17.1259843 -12.9921260 -6.8897638 17.1259843 -17.7104186 -6.8897638 6.1023622 -12.9921260 -6.8897638 6.1023622 -17.8432878 -6.8897638 6.1129800 -17.9727846 -6.8897638 6.1445641 -18.0956220 -6.8897638 6.1963126 -18.2086824 -6.8897638 6.2669122 -18.3090961 -6.8897638 6.3545709 -18.3943144 -6.8897638 6.4570639 -18.4621743 -6.8897638 6.5717896 -18.5109534 -6.8897638 6.6958362 -18.5394137 -6.8897638 6.8260551 -18.5468327 -6.8897638 6.9591412 -18.5330223 -6.8897638 7.0917166 -18.4983328 -6.8897638 7.2204163 -15.5242287 -6.8897638 15.5479077 -15.4618187 -6.8897638 15.7083393 -15.3905349 -6.8897638 15.8650298 -15.3106004 -6.8897638 16.0174889 -15.2222652 -6.8897638 16.1652394 -15.1258059 -6.8897638 16.3078189 -15.0215244 -6.8897638 16.4447812 -14.9097470 -6.8897638 16.5756976 -14.7908235 -6.8897638 16.7001585 -14.6651261 -6.8897638 16.8177743 -14.5330482 -6.8897638 16.9281769 -14.3950032 -6.8897638 17.0310209 -14.2514231 -6.8897638 17.1259843 -17.9727846 -6.8897638 6.1445641 -17.9727846 6.4960630 6.1445641 -18.0956220 -6.8897638 6.1963126 -18.0956220 6.4960630 6.1963126 -18.2086824 -6.8897638 6.2669122 -18.2086824 6.4960630 6.2669122 -18.3090961 -6.8897638 6.3545709 -18.3090961 6.4960630 6.3545709 -18.3943144 6.4960630 6.4570639 -18.3943144 -6.8897638 6.4570639 -18.4621743 6.4960630 6.5717896 -18.4621743 -6.8897638 6.5717896 -18.5109534 6.4960630 6.6958362 -18.5109534 -6.8897638 6.6958362 -18.5394137 6.4960630 6.8260551 -18.5394137 -6.8897638 6.8260551 -18.5468327 6.4960630 6.9591412 -18.5468327 -6.8897638 6.9591412 -18.5330223 6.4960630 7.0917166 -18.5330223 -6.8897638 7.0917166 -18.4983328 6.4960630 7.2204163 -18.4983328 -6.8897638 7.2204163 -15.5242287 -6.8897638 15.5479077 -18.4983328 6.4960630 7.2204163 -18.4983328 -6.8897638 7.2204163 -15.5242287 6.4960630 15.5479077 -15.4618187 6.4960630 15.7083393 -15.5242287 -6.8897638 15.5479077 -15.4618187 -6.8897638 15.7083393 -15.5242287 6.4960630 15.5479077 -15.3905349 6.4960630 15.8650298 -15.3905349 -6.8897638 15.8650298 -15.3106004 6.4960630 16.0174889 -15.3106004 -6.8897638 16.0174889 -15.2222652 6.4960630 16.1652394 -15.2222652 -6.8897638 16.1652394 -15.1258059 6.4960630 16.3078189 -15.1258059 -6.8897638 16.3078189 -15.0215244 6.4960630 16.4447812 -15.0215244 -6.8897638 16.4447812 -14.9097470 6.4960630 16.5756976 -14.9097470 -6.8897638 16.5756976 -14.7908235 6.4960630 16.7001585 -14.7908235 -6.8897638 16.7001585 -14.6651261 -6.8897638 16.8177743 -14.6651261 6.4960630 16.8177743 -14.5330482 -6.8897638 16.9281769 -14.5330482 6.4960630 16.9281769 -14.3950032 -6.8897638 17.0310209 -14.3950032 6.4960630 17.0310209 -14.2514231 -6.8897638 17.1259843 -14.2514231 6.4960630 17.1259843 -12.9921260 -6.8897638 17.1259843 -14.2514231 6.4960630 17.1259843 -14.2514231 -6.8897638 17.1259843 -12.9921260 6.4960630 17.1259843</float_array>
                    <technique_common>
                        <accessor count="120" source="#ID38" stride="3">
                            <param name="X" type="float" />
                            <param name="Y" type="float" />
                            <param name="Z" type="float" />
                        </accessor>
                    </technique_common>
                </source>
                <source id="ID36">
                    <float_array id="ID39" count="360">-0.0000000 -0.0000000 -1.0000000 -0.0000000 -0.0000000 -1.0000000 -0.0000000 -0.0000000 -1.0000000 -0.0000000 -0.0000000 -1.0000000 -0.0796580 0.0000000 -0.9968223 -0.1588098 0.0000000 -0.9873092 -0.1588098 0.0000000 -0.9873092 -0.0796580 0.0000000 -0.9968223 0.0000000 1.0000000 -0.0000000 0.0000000 1.0000000 -0.0000000 0.0000000 1.0000000 -0.0000000 0.0000000 1.0000000 -0.0000000 0.0000000 1.0000000 -0.0000000 0.0000000 1.0000000 -0.0000000 0.0000000 1.0000000 -0.0000000 0.0000000 1.0000000 -0.0000000 0.0000000 1.0000000 -0.0000000 0.0000000 1.0000000 -0.0000000 0.0000000 1.0000000 -0.0000000 0.0000000 1.0000000 -0.0000000 0.0000000 1.0000000 -0.0000000 0.0000000 1.0000000 -0.0000000 0.0000000 1.0000000 -0.0000000 0.0000000 1.0000000 -0.0000000 0.0000000 1.0000000 -0.0000000 0.0000000 1.0000000 -0.0000000 0.0000000 1.0000000 -0.0000000 0.0000000 1.0000000 -0.0000000 0.0000000 1.0000000 -0.0000000 0.0000000 1.0000000 -0.0000000 0.0000000 1.0000000 -0.0000000 0.0000000 1.0000000 -0.0000000 0.0000000 1.0000000 -0.0000000 0.0000000 1.0000000 -0.0000000 0.0000000 1.0000000 -0.0000000 0.0000000 1.0000000 -0.0000000 0.0000000 -1.0000000 0.0000000 0.0000000 -1.0000000 0.0000000 0.0000000 -1.0000000 0.0000000 0.0000000 -1.0000000 0.0000000 0.0000000 -1.0000000 0.0000000 0.0000000 -1.0000000 0.0000000 0.0000000 -1.0000000 0.0000000 0.0000000 -1.0000000 0.0000000 0.0000000 -1.0000000 0.0000000 0.0000000 -1.0000000 0.0000000 0.0000000 -1.0000000 0.0000000 0.0000000 -1.0000000 0.0000000 0.0000000 -1.0000000 0.0000000 0.0000000 -1.0000000 0.0000000 0.0000000 -1.0000000 0.0000000 0.0000000 -1.0000000 0.0000000 0.0000000 -1.0000000 0.0000000 0.0000000 -1.0000000 0.0000000 0.0000000 -1.0000000 0.0000000 0.0000000 -1.0000000 0.0000000 0.0000000 -1.0000000 0.0000000 0.0000000 -1.0000000 0.0000000 0.0000000 -1.0000000 0.0000000 0.0000000 -1.0000000 0.0000000 0.0000000 -1.0000000 0.0000000 0.0000000 -1.0000000 0.0000000 0.0000000 -1.0000000 0.0000000 0.0000000 -1.0000000 0.0000000 -0.3135887 0.0000000 -0.9495589 -0.3135887 0.0000000 -0.9495589 -0.4604083 0.0000000 -0.8877073 -0.4604083 0.0000000 -0.8877073 -0.5955419 0.0000000 -0.8033242 -0.5955419 0.0000000 -0.8033242 -0.7155598 0.0000000 -0.6985515 -0.7155598 0.0000000 -0.6985515 -0.8174156 0.0000000 -0.5760484 -0.8174156 0.0000000 -0.5760484 -0.8985240 0.0000000 -0.4389243 -0.8985240 0.0000000 -0.4389243 -0.9568265 0.0000000 -0.2906596 -0.9568265 0.0000000 -0.2906596 -0.9908432 0.0000000 -0.1350175 -0.9908432 0.0000000 -0.1350175 -0.9997107 0.0000000 0.0240516 -0.9997107 0.0000000 0.0240516 -0.9832040 0.0000000 0.1825102 -0.9832040 0.0000000 0.1825102 -0.9655412 0.0000000 0.2602503 -0.9655412 0.0000000 0.2602503 -0.9417419 0.0000000 0.3363364 -0.9417419 0.0000000 0.3363364 -0.9417419 0.0000000 0.3363364 -0.9417419 0.0000000 0.3363364 -0.9214600 0.0000000 0.3884733 -0.9319656 0.0000000 0.3625467 -0.9214600 0.0000000 0.3884733 -0.9319656 0.0000000 0.3625467 -0.8982943 0.0000000 0.4393944 -0.8982943 0.0000000 0.4393944 -0.8723172 0.0000000 0.4889403 -0.8723172 0.0000000 0.4889403 -0.8436102 0.0000000 0.5369561 -0.8436102 0.0000000 0.5369561 -0.8122630 0.0000000 0.5832914 -0.8122630 0.0000000 0.5832914 -0.7783737 0.0000000 0.6278012 -0.7783737 0.0000000 0.6278012 -0.7420484 0.0000000 0.6703463 -0.7420484 0.0000000 0.6703463 -0.7034008 0.0000000 0.7107934 -0.7034008 0.0000000 0.7107934 -0.6625518 0.0000000 0.7490161 -0.6625518 0.0000000 0.7490161 -0.6196293 0.0000000 0.7848946 -0.6196293 0.0000000 0.7848946 -0.5747676 0.0000000 0.8183167 -0.5747676 0.0000000 0.8183167 -0.5516532 -0.0000000 0.8340736 -0.5516532 -0.0000000 0.8340736 -0.0000000 -0.0000000 1.0000000 -0.0000000 -0.0000000 1.0000000 -0.0000000 -0.0000000 1.0000000 -0.0000000 -0.0000000 1.0000000</float_array>
                    <technique_common>
                        <accessor count="120" source="#ID39" stride="3">
                            <param name="X" type="float" />
                            <param name="Y" type="float" />
                            <param name="Z" type="float" />
                        </accessor>
                    </technique_common>
                </source>
                <vertices id="ID37">
                    <input semantic="POSITION" source="#ID35" />
                    <input semantic="NORMAL" source="#ID36" />
                </vertices>
                <triangles count="106" material="Material2">
                    <input offset="0" semantic="VERTEX" source="#ID37" />
                    <p>0 1 2 1 0 3 4 5 6 5 4 7 8 9 10 9 8 11 9 11 12 9 12 13 9 13 14 9 14 15 9 15 16 9 16 17 9 17 18 9 18 19 9 19 20 9 20 21 9 21 22 9 22 23 9 23 24 9 24 25 9 25 26 9 26 27 9 27 28 9 28 29 9 29 30 9 30 31 9 31 32 9 32 33 9 33 34 9 34 35 36 37 38 37 36 39 39 36 40 40 36 41 41 36 42 42 36 43 43 36 44 44 36 45 45 36 46 46 36 47 47 36 48 48 36 49 49 36 50 50 36 51 51 36 52 52 36 53 53 36 54 54 36 55 55 36 56 56 36 57 57 36 58 58 36 59 59 36 60 60 36 61 61 36 62 62 36 63 6 64 65 64 6 5 65 66 67 66 65 64 67 68 69 68 67 66 69 70 71 70 69 68 72 70 73 70 72 71 74 73 75 73 74 72 76 75 77 75 76 74 78 77 79 77 78 76 80 79 81 79 80 78 82 81 83 81 82 80 84 83 85 83 84 82 86 87 88 87 86 89 90 91 92 91 90 93 94 92 95 92 94 90 96 95 97 95 96 94 98 97 99 97 98 96 100 99 101 99 100 98 102 101 103 101 102 100 104 103 105 103 104 102 106 105 107 105 106 104 108 106 107 106 108 109 110 109 108 109 110 111 112 111 110 111 112 113 114 113 112 113 114 115 116 117 118 117 116 119</p>
                </triangles>
            </mesh>
        </geometry>
        <geometry id="ID40">
            <mesh>
                <source id="ID41">
                    <float_array id="ID44" count="12">-12.9921260 -6.8897638 17.1259843 -12.9921260 6.4960630 6.1023622 -12.9921260 -6.8897638 6.1023622 -12.9921260 6.4960630 17.1259843</float_array>
                    <technique_common>
                        <accessor count="4" source="#ID44" stride="3">
                            <param name="X" type="float" />
                            <param name="Y" type="float" />
                            <param name="Z" type="float" />
                        </accessor>
                    </technique_common>
                </source>
                <source id="ID42">
                    <float_array id="ID45" count="12">-1.0000000 0.0000000 0.0000000 -1.0000000 0.0000000 0.0000000 -1.0000000 0.0000000 0.0000000 -1.0000000 0.0000000 0.0000000</float_array>
                    <technique_common>
                        <accessor count="4" source="#ID45" stride="3">
                            <param name="X" type="float" />
                            <param name="Y" type="float" />
                            <param name="Z" type="float" />
                        </accessor>
                    </technique_common>
                </source>
                <vertices id="ID43">
                    <input semantic="POSITION" source="#ID41" />
                    <input semantic="NORMAL" source="#ID42" />
                </vertices>
                <triangles count="2" material="Material2">
                    <input offset="0" semantic="VERTEX" source="#ID43" />
                    <p>0 1 2 1 0 3</p>
                </triangles>
            </mesh>
        </geometry>
        <geometry id="ID46">
            <mesh>
                <source id="ID47">
                    <float_array id="ID50" count="30">12.9921260 -6.0202088 12.6172328 12.9921260 -8.0708661 12.6172328 14.4685039 -8.0708661 17.5196850 14.4685039 10.4330709 17.5196850 12.9921260 -6.0202088 12.6172328 14.4685039 -8.0708661 17.5196850 12.9921260 8.3963959 12.6172328 12.9921260 10.4330709 12.6172328 12.9921260 8.3963959 12.6172328 14.4685039 10.4330709 17.5196850</float_array>
                    <technique_common>
                        <accessor count="10" source="#ID50" stride="3">
                            <param name="X" type="float" />
                            <param name="Y" type="float" />
                            <param name="Z" type="float" />
                        </accessor>
                    </technique_common>
                </source>
                <source id="ID48">
                    <float_array id="ID51" count="30">-0.9575224 0.0000000 0.2883588 -0.9575224 0.0000000 0.2883588 -0.9575224 0.0000000 0.2883588 -0.9575224 0.0000000 0.2883588 -0.9575224 0.0000000 0.2883588 -0.9575224 0.0000000 0.2883588 -0.9575224 0.0000000 0.2883588 -0.9575224 0.0000000 0.2883588 -0.9575224 0.0000000 0.2883588 -0.9575224 0.0000000 0.2883588</float_array>
                    <technique_common>
                        <accessor count="10" source="#ID51" stride="3">
                            <param name="X" type="float" />
                            <param name="Y" type="float" />
                            <param name="Z" type="float" />
                        </accessor>
                    </technique_common>
                </source>
                <vertices id="ID49">
                    <input semantic="POSITION" source="#ID47" />
                    <input semantic="NORMAL" source="#ID48" />
                </vertices>
                <triangles count="4" material="Material2">
                    <input offset="0" semantic="VERTEX" source="#ID49" />
                    <p>0 1 2 3 4 5 4 3 6 7 8 9</p>
                </triangles>
            </mesh>
        </geometry>
        <geometry id="ID52">
            <mesh>
                <source id="ID53">
                    <float_array id="ID56" count="12">12.9921260 10.4330709 10.2253609 14.4685039 -8.0708661 5.3149606 12.9921260 -8.0708661 10.2253609 14.4685039 10.4330709 5.3149606</float_array>
                    <technique_common>
                        <accessor count="4" source="#ID56" stride="3">
                            <param name="X" type="float" />
                            <param name="Y" type="float" />
                            <param name="Z" type="float" />
                        </accessor>
                    </technique_common>
                </source>
                <source id="ID54">
                    <float_array id="ID57" count="12">-0.9576512 0.0000000 -0.2879307 -0.9576512 0.0000000 -0.2879307 -0.9576512 0.0000000 -0.2879307 -0.9576512 0.0000000 -0.2879307</float_array>
                    <technique_common>
                        <accessor count="4" source="#ID57" stride="3">
                            <param name="X" type="float" />
                            <param name="Y" type="float" />
                            <param name="Z" type="float" />
                        </accessor>
                    </technique_common>
                </source>
                <vertices id="ID55">
                    <input semantic="POSITION" source="#ID53" />
                    <input semantic="NORMAL" source="#ID54" />
                </vertices>
                <triangles count="2" material="Material2">
                    <input offset="0" semantic="VERTEX" source="#ID55" />
                    <p>0 1 2 1 0 3</p>
                </triangles>
            </mesh>
        </geometry>
        <geometry id="ID58">
            <mesh>
                <source id="ID61">
                    <float_array id="ID64" count="66">7.2834646 -2.5590551 20.3740157 5.5118110 0.9842520 20.3740157 5.5118110 -2.5590551 20.3740157 7.2834646 0.9842520 20.3740157 5.5118110 0.9842520 20.3740157 5.5118110 -2.5590551 19.0944882 5.5118110 -2.5590551 20.3740157 5.5118110 0.9842520 19.0944882 7.2834646 -2.5590551 20.3740157 5.5118110 -2.5590551 16.5354331 7.2834646 -2.5590551 16.5354331 5.5118110 -2.5590551 19.0944882 5.5118110 -2.5590551 20.3740157 7.2834646 0.9842520 16.5354331 7.2834646 -2.5590551 20.3740157 7.2834646 -2.5590551 16.5354331 7.2834646 0.9842520 20.3740157 5.5118110 0.9842520 19.0944882 7.2834646 0.9842520 16.5354331 5.5118110 0.9842520 16.5354331 7.2834646 0.9842520 20.3740157 5.5118110 0.9842520 20.3740157</float_array>
                    <technique_common>
                        <accessor count="22" source="#ID64" stride="3">
                            <param name="X" type="float" />
                            <param name="Y" type="float" />
                            <param name="Z" type="float" />
                        </accessor>
                    </technique_common>
                </source>
                <source id="ID62">
                    <float_array id="ID65" count="66">0.0000000 0.0000000 1.0000000 0.0000000 0.0000000 1.0000000 0.0000000 0.0000000 1.0000000 0.0000000 0.0000000 1.0000000 -1.0000000 -0.0000000 -0.0000000 -1.0000000 -0.0000000 -0.0000000 -1.0000000 -0.0000000 -0.0000000 -1.0000000 -0.0000000 -0.0000000 0.0000000 -1.0000000 0.0000000 0.0000000 -1.0000000 0.0000000 0.0000000 -1.0000000 0.0000000 0.0000000 -1.0000000 0.0000000 0.0000000 -1.0000000 0.0000000 1.0000000 -0.0000000 0.0000000 1.0000000 -0.0000000 0.0000000 1.0000000 -0.0000000 0.0000000 1.0000000 -0.0000000 0.0000000 0.0000000 1.0000000 -0.0000000 0.0000000 1.0000000 -0.0000000 0.0000000 1.0000000 -0.0000000 0.0000000 1.0000000 -0.0000000 0.0000000 1.0000000 -0.0000000</float_array>
                    <technique_common>
                        <accessor count="22" source="#ID65" stride="3">
                            <param name="X" type="float" />
                            <param name="Y" type="float" />
                            <param name="Z" type="float" />
                        </accessor>
                    </technique_common>
                </source>
                <vertices id="ID63">
                    <input semantic="POSITION" source="#ID61" />
                    <input semantic="NORMAL" source="#ID62" />
                </vertices>
                <triangles count="12" material="Material2">
                    <input offset="0" semantic="VERTEX" source="#ID63" />
                    <p>0 1 2 1 0 3 4 5 6 5 4 7 8 9 10 9 8 11 11 8 12 13 14 15 14 13 16 17 18 19 18 17 20 20 17 21</p>
                </triangles>
            </mesh>
        </geometry>
        <geometry id="ID66">
            <mesh>
                <source id="ID69">
                    <float_array id="ID72" count="24">15.9448819 -8.0708661 5.3149606 15.9448819 -7.2834646 6.1023622 15.9448819 -8.0708661 17.5196850 15.9448819 10.4330709 5.3149606 15.9448819 9.6456693 6.1023622 15.9448819 -7.2834646 16.7322835 15.9448819 10.4330709 17.5196850 15.9448819 9.6456693 16.7322835</float_array>
                    <technique_common>
                        <accessor count="8" source="#ID72" stride="3">
                            <param name="X" type="float" />
                            <param name="Y" type="float" />
                            <param name="Z" type="float" />
                        </accessor>
                    </technique_common>
                </source>
                <source id="ID70">
                    <float_array id="ID73" count="24">1.0000000 -0.0000000 -0.0000000 1.0000000 -0.0000000 -0.0000000 1.0000000 -0.0000000 -0.0000000 1.0000000 -0.0000000 -0.0000000 1.0000000 -0.0000000 -0.0000000 1.0000000 -0.0000000 -0.0000000 1.0000000 -0.0000000 -0.0000000 1.0000000 -0.0000000 -0.0000000</float_array>
                    <technique_common>
                        <accessor count="8" source="#ID73" stride="3">
                            <param name="X" type="float" />
                            <param name="Y" type="float" />
                            <param name="Z" type="float" />
                        </accessor>
                    </technique_common>
                </source>
                <vertices id="ID71">
                    <input semantic="POSITION" source="#ID69" />
                    <input semantic="NORMAL" source="#ID70" />
                </vertices>
                <triangles count="8" material="Material2">
                    <input offset="0" semantic="VERTEX" source="#ID71" />
                    <p>0 1 2 1 0 3 1 3 4 2 5 6 5 2 1 6 5 7 6 7 4 6 4 3</p>
                </triangles>
            </mesh>
        </geometry>
    </library_geometries>
    <library_materials>
        <material id="ID3" name="material_1">
            <instance_effect url="#ID4" />
        </material>
        <material id="ID11" name="material_3">
            <instance_effect url="#ID12" />
        </material>
        <material id="ID19" name="material_5">
            <instance_effect url="#ID20" />
        </material>
        <material id="ID33" name="material_7">
            <instance_effect url="#ID34" />
        </material>
        <material id="ID59" name="material_2">
            <instance_effect url="#ID60" />
        </material>
        <material id="ID67" name="material_4">
            <instance_effect url="#ID68" />
        </material>
    </library_materials>
    <library_effects>
        <effect id="ID4">
            <profile_COMMON>
                <technique sid="COMMON">
                    <lambert>
                        <diffuse>
                            <color>0.6000000 0.6000000 0.6000000 1.0000000</color>
                        </diffuse>
                    </lambert>
                </technique>
            </profile_COMMON>
        </effect>
        <effect id="ID12">
            <profile_COMMON>
                <technique sid="COMMON">
                    <lambert>
                        <diffuse>
                            <color>0.4000000 0.4000000 0.4000000 1.0000000</color>
                        </diffuse>
                    </lambert>
                </technique>
            </profile_COMMON>
        </effect>
        <effect id="ID20">
            <profile_COMMON>
                <technique sid="COMMON">
                    <lambert>
                        <diffuse>
                            <color>0.2000000 0.2000000 0.2000000 1.0000000</color>
                        </diffuse>
                    </lambert>
                </technique>
            </profile_COMMON>
        </effect>
        <effect id="ID34">
            <profile_COMMON>
                <technique sid="COMMON">
                    <lambert>
                        <diffuse>
                            <color>0.0000000 0.2000000 0.0000000 1.0000000</color>
                        </diffuse>
                    </lambert>
                </technique>
            </profile_COMMON>
        </effect>
        <effect id="ID60">
            <profile_COMMON>
                <technique sid="COMMON">
                    <lambert>
                        <diffuse>
                            <color>0.0000000 0.0000000 0.0000000 1.0000000</color>
                        </diffuse>
                    </lambert>
                </technique>
            </profile_COMMON>
        </effect>
        <effect id="ID68">
            <profile_COMMON>
                <technique sid="COMMON">
                    <lambert>
                        <diffuse>
                            <color>0.8000000 0.8000000 0.8000000 1.0000000</color>
                        </diffuse>
                    </lambert>
                </technique>
            </profile_COMMON>
        </effect>
    </library_effects>
    <scene>
        <instance_visual_scene url="#ID1" />
    </scene>
</COLLADA>
